{"cinemas":[{"id":234,"mark":0,"nm":"和平影都","sellPrice":"13","addr":"黄浦区西藏中路290号（近汉口路）","distance":"1204.8km","tag":{"allowRefund":1,"buyout":0,"cityCardTag":0,"deal":0,"endorse":1,"giftTag":"","hallType":["IMAX厅"],"hallTypeVOList":[{"name":"IMAX厅","url":""}],"sell":1,"snack":1,"vipTag":"折扣卡"},"promotion":{"cardPromotionTag":"开卡特惠，首单1张最高立减4元","couponPromotionTag":"","merchantActivityTag":"","packShowActivityTag":"","platformActivityTag":"","starActivityTag":""},"showTimes":""},{"id":17158,"mark":0,"nm":"JIA（嘉莱影城九亭店）","sellPrice":"18","addr":"松江区地铁九号线九亭站地铁二号口内（地下一层）","distance":"1187.1km","tag":{"allowRefund":1,"buyout":0,"cityCardTag":0,"deal":0,"endorse":1,"giftTag":"","hallType":[],"hallTypeVOList":[],"sell":1,"snack":1,"vipTag":"折扣卡"},"promotion":{"cardPromotionTag":"开卡特惠，首单1张最高立减4元","couponPromotionTag":"","merchantActivityTag":"","packShowActivityTag":"","platformActivityTag":"","starActivityTag":""},"showTimes":""},{"id":27490,"mark":0,"nm":"新杨湾大光明影城","sellPrice":"19","addr":"宝山区江杨南路880号3幢D2-1室","distance":"1211.8km","tag":{"allowRefund":0,"buyout":0,"cityCardTag":0,"deal":0,"endorse":0,"giftTag":"","hallType":["DTS:X 临境音厅"],"hallTypeVOList":[{"name":"DTS:X 临境音厅","url":""}],"sell":1,"snack":1,"vipTag":""},"promotion":{"cardPromotionTag":"","couponPromotionTag":"","merchantActivityTag":"","packShowActivityTag":"","platformActivityTag":"","starActivityTag":""},"showTimes":""},{"id":24351,"mark":0,"nm":"金逸影城MX4D（光美上海青浦满天星店）","sellPrice":"19.9","addr":"青浦区淀山湖大道399弄满天星广场1号楼4层","distance":"1174.1km","tag":{"allowRefund":0,"buyout":0,"cityCardTag":0,"deal":0,"endorse":1,"giftTag":"","hallType":["杜比全景声厅","4D厅"],"hallTypeVOList":[{"name":"杜比全景声厅","url":""},{"name":"4D厅","url":""}],"sell":1,"snack":0,"vipTag":"折扣卡"},"promotion":{"cardPromotionTag":"开卡特惠，首单1张最高立减2元","couponPromotionTag":"","merchantActivityTag":"","packShowActivityTag":"","platformActivityTag":"","starActivityTag":""},"showTimes":""},{"id":57,"mark":0,"nm":"永乐国际影城（青松路1店）","sellPrice":"19.9","addr":"青浦区青松路37号（近成泰百货）","distance":"1176km","tag":{"allowRefund":1,"buyout":0,"cityCardTag":0,"deal":0,"endorse":1,"giftTag":"","hallType":["4K厅"],"hallTypeVOList":[{"name":"4K厅","url":""}],"sell":1,"snack":1,"vipTag":"折扣卡"},"promotion":{"cardPromotionTag":"开卡特惠，首单1张最高立减4元","couponPromotionTag":"","merchantActivityTag":"","packShowActivityTag":"","platformActivityTag":"","starActivityTag":""},"showTimes":""},{"id":24248,"mark":0,"nm":"SFC上影国际影城青浦店（富绅家乐福）","sellPrice":"19.9","addr":"青浦区公园东路1289弄富绅商业中心广场二楼203-211","distance":"1177.7km","tag":{"allowRefund":1,"buyout":0,"cityCardTag":0,"deal":0,"endorse":1,"giftTag":"","hallType":[],"hallTypeVOList":[],"sell":1,"snack":1,"vipTag":"折扣卡"},"promotion":{"cardPromotionTag":"开卡特惠，首单2张最高立减2元","couponPromotionTag":"","merchantActivityTag":"","packShowActivityTag":"","platformActivityTag":"","starActivityTag":""},"showTimes":""},{"id":27461,"mark":0,"nm":"DFC影城（大场店）","sellPrice":"19.9","addr":"宝山区场中路4048号","distance":"1207.4km","tag":{"allowRefund":0,"buyout":0,"cityCardTag":0,"deal":0,"endorse":0,"giftTag":"","hallType":[],"hallTypeVOList":[],"sell":1,"snack":1,"vipTag":""},"promotion":{"cardPromotionTag":"","couponPromotionTag":"","merchantActivityTag":"","packShowActivityTag":"","platformActivityTag":"","starActivityTag":""},"showTimes":""},{"id":13812,"mark":0,"nm":"永乐国际影城（青湖东路2店）","sellPrice":"20","addr":"青浦区青湖东路900号3楼","distance":"1177.6km","tag":{"allowRefund":1,"buyout":0,"cityCardTag":0,"deal":0,"endorse":1,"giftTag":"","hallType":["杜比全景声厅","4K厅"],"hallTypeVOList":[{"name":"杜比全景声厅","url":""},{"name":"4K厅","url":""}],"sell":1,"snack":1,"vipTag":"折扣卡"},"promotion":{"cardPromotionTag":"开卡特惠，首单1张最高立减4元","couponPromotionTag":"","merchantActivityTag":"","packShowActivityTag":"","platformActivityTag":"","starActivityTag":""},"showTimes":""},{"id":9264,"mark":0,"nm":"耀莱成龙影城（金沙江路店）","sellPrice":"20.9","addr":"普陀区真北路818号近铁城市广场北区4层","distance":"1199.2km","tag":{"allowRefund":0,"buyout":0,"cityCardTag":0,"deal":0,"endorse":1,"giftTag":"","hallType":["4DX厅","60帧厅"],"hallTypeVOList":[{"name":"4DX厅","url":""},{"name":"60帧厅","url":""}],"sell":1,"snack":1,"vipTag":"折扣卡"},"promotion":{"cardPromotionTag":"开卡特惠，首单1张最高立减6元","couponPromotionTag":"","merchantActivityTag":"","packShowActivityTag":"","platformActivityTag":"","starActivityTag":""},"showTimes":""},{"id":113,"mark":0,"nm":"金逸影城（中环店）","sellPrice":"21.9","addr":"普陀区金沙江路1628号绿洲中环5号楼（农工商118广场对面）","distance":"1199.2km","tag":{"allowRefund":0,"buyout":0,"cityCardTag":0,"deal":0,"endorse":0,"giftTag":"","hallType":["杜比全景声厅","DTS:X 临境音厅"],"hallTypeVOList":[{"name":"杜比全景声厅","url":""},{"name":"DTS:X 临境音厅","url":""}],"sell":1,"snack":1,"vipTag":"折扣卡"},"promotion":{"cardPromotionTag":"开卡特惠，首单2张最高立减4元","couponPromotionTag":"","merchantActivityTag":"","packShowActivityTag":"","platformActivityTag":"","starActivityTag":""},"showTimes":""}],"ct_pois":[{"ct_poi":"936879945111165696_a234_c0","poiid":1573102},{"ct_poi":"936879945111165696_a17158_c1","poiid":152386426},{"ct_poi":"936879945111165696_a27490_c2","poiid":194519789},{"ct_poi":"936879945111165696_a24351_c3","poiid":164475797},{"ct_poi":"936879945111165696_a57_c4","poiid":1436319},{"ct_poi":"936879945111165696_a24248_c5","poiid":163857203},{"ct_poi":"936879945111165696_a27461_c6","poiid":194568307},{"ct_poi":"936879945111165696_a13812_c7","poiid":72676818},{"ct_poi":"936879945111165696_a9264_c8","poiid":5300534},{"ct_poi":"936879945111165696_a113_c9","poiid":445819}],"paging":{"hasMore":true,"limit":10,"offset":0,"total":437}}